// Jest Snapshot v1, https://goo.gl/fbAQLP

exports[`AddTodoForm component: AddTodoForm renders correctly 1`] = `
ShallowWrapper {
  Symbol(enzyme.__root__): [Circular],
  Symbol(enzyme.__unrendered__): <IntlProvider
    locale="en"
    messages={
      Object {
        "addTodoForm.button.addTodo": "Add Todo",
        "addTodoForm.input.placeholder": "write new todo here",
        "filter.label.active": "Active",
        "filter.label.all": "All",
        "filter.label.completed": "Completed",
        "footer.title.filters": "Filters: ",
        "header.title.toDoList": "to do list",
      }
    }
  >
    <ThemeProvider
      theme={
        Object {
          "addTodoForm": Object {
            "button": Object {
              "margin": 10,
            },
          },
          "button": Object {
            "bacground": Object {
              "activeColor": "#273439",
              "disabledColor": "dimgrey",
            },
            "border": Object {
              "activeColor": "#20911e",
              "radius": 10,
            },
            "boxShadow": Object {
              "color": "#356b0b",
            },
            "color": "#fff",
            "height": 30,
            "minWidth": 100,
          },
          "footer": Object {
            "button": Object {
              "margin": 10,
            },
          },
          "input": Object {
            "border": Object {
              "radius": 5,
            },
            "height": 30,
          },
          "page": Object {
            "bacground": Object {
              "color": "darkgray",
            },
            "footer": Object {
              "padding": Object {
                "bottom": 10,
              },
            },
            "formWrapper": Object {
              "bacground": Object {
                "color": "#1fc8db",
              },
              "marginTop": 50,
              "minHeight": 100,
              "padding": 40,
              "width": 400,
            },
            "header": Object {
              "bacground": Object {
                "color": "#1fc8db",
              },
              "height": 50,
            },
            "padding": 50,
          },
          "todo": Object {
            "padding": 5,
          },
        }
      }
    >
      <InjectIntl(AddTodoForm)
        onClick={[MockFunction]}
      />
    </ThemeProvider>
  </IntlProvider>,
  Symbol(enzyme.__renderer__): Object {
    "batchedUpdates": [Function],
    "getNode": [Function],
    "render": [Function],
    "simulateError": [Function],
    "simulateEvent": [Function],
    "unmount": [Function],
  },
  Symbol(enzyme.__node__): Object {
    "instance": null,
    "key": undefined,
    "nodeType": "class",
    "props": Object {
      "children": <InjectIntl(AddTodoForm)
        onClick={[MockFunction]}
      />,
      "theme": Object {
        "addTodoForm": Object {
          "button": Object {
            "margin": 10,
          },
        },
        "button": Object {
          "bacground": Object {
            "activeColor": "#273439",
            "disabledColor": "dimgrey",
          },
          "border": Object {
            "activeColor": "#20911e",
            "radius": 10,
          },
          "boxShadow": Object {
            "color": "#356b0b",
          },
          "color": "#fff",
          "height": 30,
          "minWidth": 100,
        },
        "footer": Object {
          "button": Object {
            "margin": 10,
          },
        },
        "input": Object {
          "border": Object {
            "radius": 5,
          },
          "height": 30,
        },
        "page": Object {
          "bacground": Object {
            "color": "darkgray",
          },
          "footer": Object {
            "padding": Object {
              "bottom": 10,
            },
          },
          "formWrapper": Object {
            "bacground": Object {
              "color": "#1fc8db",
            },
            "marginTop": 50,
            "minHeight": 100,
            "padding": 40,
            "width": 400,
          },
          "header": Object {
            "bacground": Object {
              "color": "#1fc8db",
            },
            "height": 50,
          },
          "padding": 50,
        },
        "todo": Object {
          "padding": 5,
        },
      },
    },
    "ref": null,
    "rendered": Object {
      "instance": null,
      "key": undefined,
      "nodeType": "class",
      "props": Object {
        "onClick": [MockFunction],
      },
      "ref": null,
      "rendered": null,
      "type": [Function],
    },
    "type": [Function],
  },
  Symbol(enzyme.__nodes__): Array [
    Object {
      "instance": null,
      "key": undefined,
      "nodeType": "class",
      "props": Object {
        "children": <InjectIntl(AddTodoForm)
          onClick={[MockFunction]}
        />,
        "theme": Object {
          "addTodoForm": Object {
            "button": Object {
              "margin": 10,
            },
          },
          "button": Object {
            "bacground": Object {
              "activeColor": "#273439",
              "disabledColor": "dimgrey",
            },
            "border": Object {
              "activeColor": "#20911e",
              "radius": 10,
            },
            "boxShadow": Object {
              "color": "#356b0b",
            },
            "color": "#fff",
            "height": 30,
            "minWidth": 100,
          },
          "footer": Object {
            "button": Object {
              "margin": 10,
            },
          },
          "input": Object {
            "border": Object {
              "radius": 5,
            },
            "height": 30,
          },
          "page": Object {
            "bacground": Object {
              "color": "darkgray",
            },
            "footer": Object {
              "padding": Object {
                "bottom": 10,
              },
            },
            "formWrapper": Object {
              "bacground": Object {
                "color": "#1fc8db",
              },
              "marginTop": 50,
              "minHeight": 100,
              "padding": 40,
              "width": 400,
            },
            "header": Object {
              "bacground": Object {
                "color": "#1fc8db",
              },
              "height": 50,
            },
            "padding": 50,
          },
          "todo": Object {
            "padding": 5,
          },
        },
      },
      "ref": null,
      "rendered": Object {
        "instance": null,
        "key": undefined,
        "nodeType": "class",
        "props": Object {
          "onClick": [MockFunction],
        },
        "ref": null,
        "rendered": null,
        "type": [Function],
      },
      "type": [Function],
    },
  ],
  Symbol(enzyme.__options__): Object {
    "adapter": ReactSixteenAdapter {
      "options": Object {
        "enableComponentDidUpdateOnSetState": true,
        "lifecycles": Object {
          "componentDidUpdate": Object {
            "onSetState": true,
          },
          "getDerivedStateFromProps": true,
          "getSnapshotBeforeUpdate": true,
          "setState": Object {
            "skipsComponentDidUpdateOnNullish": true,
          },
        },
      },
    },
  },
}
`;
